BioC19CWL.utf8.md
…
tools <- cwlTools(cachePath = tempdir())
tools

## class: BiocFileCache
## bfccache: /tmp/RtmplipxDe
## bfccount: 36
## For more information see: bfcinfo() or bfcquery()

The full paths can be pulled from the fpath column.

suppressPackageStartupMessages(library(dplyr))
bfcinfo(tools) %>% select(rname, fpath)

## # A tibble: 36 x 2
##    rname           fpath                                                   
##    <chr>           <chr>                                                   
##  1 blastn          /home/dcassol/R/x86_64-pc-linux-gnu-library/3.6/RcwlPip
##  2 bowtie2_align   /home/dcassol/R/x86_64-pc-linux-gnu-library/3.6/RcwlPip
##  3 bowtie2_build   /home/dcassol/R/x86_64-pc-linux-gnu-library/3.6/RcwlPip
##  4 bwa_index       /home/dcassol/R/x86_64-pc-linux-gnu-library/3.6/RcwlPip
##  5 bwa             /home/dcassol/R/x86_64-pc-linux-gnu-library/3.6/RcwlPip
##  6 cutadapt        /home/dcassol/R/x86_64-pc-linux-gnu-library/3.6/RcwlPip
##  7 fastQC          /home/dcassol/R/x86_64-pc-linux-gnu-library/3.6/RcwlPip
##  8 featureCounts   /home/dcassol/R/x86_64-pc-linux-gnu-library/3.6/RcwlPip
##  9 geneBody_cover /home/dcassol/R/x86_64-pc-linux-gnu-library/3.6/RcwlPip
## 10 genePredToBed   /home/dcassol/R/x86_64-pc-linux-gnu-library/3.6/RcwlPip
## #  with 26 more rows
…
